time, sub_size, percentage, waiting, running, load, F
0, 3, 1, 0, 0, 0.02, 0.012167736474204941
30, 6, 1, 0, 3, 0.28, -3.4815194565368035
60, 10, 1, 0, 6, 0.00, -6.941783682784638
90, 11, 1, 0, 10, 1.37, -9.884925679788052
120, 12, 1, 0, 11, 2.23, -11.423514473522337
150, 13, 1, 0, 12, 2.16, -12.397786790932903
180, 14, 1, 0, 13, 2.21, -13.394889532415382
210, 15, 1, 0, 14, 2.23, -14.347836312322661
240, 15, 1, 0, 15, 2.68, -15.055656904569679
270, 16, 1, 0, 15, 2.10, -15.748357021332149
300, 15, 1, 0, 16, 3.32, -16.207707771088327
330, 15, 1, 0, 15, 3.09, -15.938531910683718
360, 17, 1, 0, 15, 1.95, -16.422227855624893
390, 15, 1, 0, 17, 3.72, -16.779018850152802
420, 17, 1, 0, 15, 2.42, -16.582831935708708
450, 18, 1, 0, 17, 2.36, -17.324065754279065
480, 15, 1, 0, 18, 4.06, -17.22121768173423
510, 15, 1, 0, 15, 3.78, -16.073893377015818
540, 16, 1, 0, 15, 2.29, -15.899451994635577
570, 16, 1, 0, 16, 2.68, -16.56359781095907
600, 17, 1, 0, 16, 2.78, -16.900595284517472
630, 17, 1, 0, 17, 2.75, -17.186903080819487
660, 16, 1, 0, 17, 3.28, -17.217229310980663
690, 15, 1, 0, 16, 3.60, -16.708509521907825
720, 16, 1, 0, 15, 2.84, -16.37351020787605
750, 16, 1, 0, 16, 2.88, -16.54448270898101
780, 19, 1, 0, 16, 1.38, -17.468917672086302
810, 18, 1, 0, 19, 3.10, -18.54542121777298
840, 19, 1, 0, 18, 2.29, -18.8437097742844
870, 17, 1, 0, 19, 4.29, -18.66649189545496
900, 18, 1, 0, 17, 2.72, -17.913257807520544
930, 18, 1, 0, 18, 2.86, -18.18334347955861
960, 17, 1, 0, 18, 3.57, -17.982715723707443
990, 17, 1, 0, 17, 2.84, -17.667762249788474
1020, 17, 1, 0, 17, 3.27, -17.635649499359115
1050, 14, 1, 0, 17, 4.41, -16.710359733341132
1080, 15, 1, 0, 14, 3.37, -15.536231004717566
1110, 15, 1, 0, 15, 2.91, -15.325578116768238
1140, 16, 1, 0, 15, 2.57, -15.60943255738918
1170, 15, 1, 0, 16, 3.23, -15.787932603810606
1200, 16, 1, 0, 15, 2.59, -15.83731421522544
1230, 16, 1, 0, 16, 2.77, -16.243049834758082
1260, 16, 1, 0, 16, 3.17, -16.318335423485806
1290, 17, 1, 0, 16, 2.08, -16.680050376290733
1320, 16, 1, 0, 17, 3.21, -17.212395709671068
1350, 16, 1, 0, 16, 3.52, -16.792965976015697
1380, 15, 1, 0, 16, 3.76, -16.033078018310714
1410, 15, 1, 0, 15, 3.02, -15.491633311646071
1440, 16, 1, 0, 15, 2.67, -15.653585527368858
1470, 16, 1, 0, 16, 2.40, -16.195271136022733
1500, 16, 1, 0, 16, 2.97, -16.628707075258863
1530, 16, 1, 0, 16, 3.37, -16.460652768543724
1560, 17, 1, 0, 16, 2.41, -16.512011266491104
1590, 16, 1, 0, 17, 2.97, -16.938968317018556
1620, 16, 1, 0, 16, 2.98, -16.96793644976149
1650, 16, 1, 0, 16, 3.09, -16.938486358609374
1680, 17, 1, 0, 16, 2.81, -16.979464376092615
1710, 17, 1, 0, 17, 2.67, -17.285675386260838
1740, 17, 1, 0, 17, 3.17, -17.425593489627925
1770, 15, 1, 0, 17, 3.98, -16.795579634417976
1800, 11, 1, 0, 15, 5.41, -14.859532655840626
1830, 11, 1, 0, 11, 4.06, -12.627846555482847
1860, 14, 1, 0, 11, 1.66, -12.586975563809295
1890, 14, 1, 0, 14, 2.40, -13.835474093535222
1920, 15, 1, 0, 14, 2.19, -14.674593439816409
1950, 15, 1, 0, 15, 2.72, -15.38129936015566
1980, 17, 1, 0, 15, 2.06, -16.065473034093092
2010, 18, 1, 0, 41, 1.81, -17.343652041465727
2040, 15, 1, 0, 51, 4.33, -17.478715225420675
2070, 12, 1, 0, 49, 5.10, -15.455224512951439
2100, 9, 1, 0, 44, 5.87, -12.49690436843787
2130, 5, 1, 0, 41, 5.64, -9.121039173459511
2160, 4, 1, 0, 37, 4.46, -6.520466924871031
2190, 3, 1, 0, 36, 3.97, -4.997161259700025
2220, 2, 1, 0, 35, 4.31, -3.6339304242632533
2250, 3, 1, 0, 34, 2.41, -3.0251626630477926
2280, 2, 1, 0, 35, 3.39, -3.236491531497342
2310, 2, 1, 0, 34, 3.09, -2.922303600706478
2340, 2, 1, 0, 34, 3.26, -2.7260290901063358
2370, 1, 1, 0, 34, 3.41, -2.33127188531257
2400, 3, 1, 0, 33, 2.28, -2.4204832850934452
2430, 1, 1, 0, 35, 3.78, -2.517459793856726
2460, 2, 1, 0, 33, 2.72, -2.118618077722542
2490, 0, 1, 0, 34, 3.81, -1.8910663218953898
2520, 1, 1, 0, 32, 2.77, -1.4479840005641764
2550, 0, 1, 0, 33, 3.62, -1.2874634539691128
2580, 1, 1, 0, 32, 2.76, -0.9823845179906027
2610, 1, 1, 0, 33, 2.72, -1.2951175181437482
2640, 0, 1, 0, 33, 3.81, -1.0679754712461613
2670, 2, 1, 0, 32, 2.03, -1.0059911590726023
2700, 3, 1, 0, 34, 1.90, -2.253174318394923
2730, 1, 1, 0, 35, 3.70, -2.6531823739672054
2760, 1, 1, 0, 33, 3.41, -1.9492017456823545
2790, 3, 1, 0, 33, 1.92, -2.2287112718362216
2820, 2, 1, 0, 35, 3.22, -2.867580081723754
2850, 2, 1, 0, 34, 3.16, -2.6276035937216693
2880, 2, 1, 0, 34, 3.29, -2.363514302584056
2910, 1, 1, 0, 34, 3.40, -1.9516342188459401
2940, 1, 1, 0, 33, 3.06, -1.6442692330826472
2970, 2, 1, 0, 33, 2.77, -1.7258857834383077
3000, 2, 1, 0, 34, 2.87, -1.9575326834452804
3030, 2, 1, 0, 34, 2.60, -2.258168724763747
3060, 1, 1, 0, 34, 3.49, -2.2781171466775505
3090, 3, 1, 0, 33, 2.10, -2.403570899981801
3120, 0, 1, 0, 35, 4.59, -2.2063687823877514
3150, 0, 1, 0, 32, 3.70, -0.7352737911040393
3180, 0, 1, 0, 32, 2.70, -0.4022582320705526
3210, 0, 1, 0, 32, 3.35, -0.42592704373450585
3240, 0, 1, 0, 32, 3.76, 0.21457272666754681
3270, 0, 1, 0, 32, 3.93, 1.2278226217512074
3300, 0, 1, 0, 32, 3.20, 1.9806605402982458
3330, 0, 1, 0, 32, 2.70, 1.9669187712559235
3360, 0, 1, 0, 32, 3.32, 1.9249953884218298
3390, 0, 1, 0, 32, 2.81, 2.0477787899768782
3420, 0, 1, 0, 32, 2.46, 1.634806693774123
3450, 0, 1, 0, 32, 2.07, 0.7768543518068098
3480, 1, 1, 0, 32, 2.19, -0.2942729092215614
3510, 0, 1, 0, 33, 3.09, -0.8157573321612253
3540, 2, 1, 0, 32, 1.96, -1.2948000371699928
3570, 2, 1, 0, 34, 2.94, -2.0497559266932193
3600, 2, 1, 0, 34, 2.67, -2.2611457617698623
3630, 5, 1, 0, 34, 1.12, -3.4674989018238604
3660, 5, 1, 0, 37, 2.70, -4.936729016506893
3690, 4, 1, 0, 37, 3.49, -4.892995200296058
3720, 1, 1, 0, 36, 4.50, -3.7718030461638747
3750, 1, 1, 0, 33, 3.77, -2.3224732538755366
3780, 0, 1, 0, 33, 3.82, -1.3529501654707639
3810, 0, 1, 0, 32, 3.79, -0.36437505155291217
3840, 0, 1, 0, 32, 2.75, 0.05866015719327021
3870, 1, 1, 0, 32, 2.48, -0.3891095974284165
3900, 0, 1, 0, 33, 3.37, -0.5631396751835166
3930, 1, 1, 0, 32, 2.47, -0.5807976934646497
3960, 0, 1, 0, 33, 3.65, -0.6110168321536217
3990, 0, 1, 0, 32, 3.07, -0.12312568673796898
4020, 0, 1, 0, 32, 2.66, -0.2529366757578177
4050, 0, 1, 0, 32, 3.35, -0.3118374238233326
4080, 0, 1, 0, 32, 3.75, 0.321648442401033
4110, 0, 1, 0, 8, 2.35, 0.505858544257088
4140, 2, 1, 0, 0, 1.74, -0.6045631700943181
4170, 1, 1, 0, 2, 2.88, -1.542284318810727
4200, 6, 1, 0, 1, 0.25, -3.05503017004825
4230, 10, 1, 0, 6, 0.00, -6.534519868826051
4260, 10, 1, 0, 10, 1.68, -9.315253307623282
4290, 14, 1, 0, 10, 0.70, -11.431392841686892
4320, 13, 1, 0, 14, 2.68, -13.198990153486314
4350, 15, 1, 0, 13, 1.72, -14.088084914976346
4380, 16, 1, 0, 15, 1.98, -15.513548585798524
4410, 17, 1, 0, 16, 2.42, -16.528395589276847
4440, 18, 1, 0, 17, 2.17, -17.36605649173539
4470, 20, 1, 0, 18, 1.64, -18.65163192823186
4500, 19, 1, 0, 20, 3.24, -19.47321567239674
4530, 18, 1, 0, 19, 3.51, -19.03829674234898
4560, 18, 1, 0, 18, 3.01, -18.673956928866502
4590, 18, 1, 0, 18, 3.10, -18.611049252552288
4620, 18, 1, 0, 18, 3.08, -18.501043954485514
4650, 16, 1, 0, 18, 3.89, -17.98432717537586
4680, 15, 1, 0, 16, 3.85, -16.917598895597934
4710, 14, 1, 0, 15, 4.13, -15.733318390071034
4740, 16, 1, 0, 14, 2.22, -15.352225574922112
4770, 18, 1, 0, 16, 1.66, -16.59490883525752
4800, 19, 1, 0, 18, 2.06, -18.018631021733498
4830, 19, 1, 0, 19, 2.34, -19.016056175765243
4860, 18, 1, 0, 19, 3.32, -19.30469746827235
4890, 17, 1, 0, 18, 4.15, -18.47707493421778
4920, 16, 1, 0, 17, 3.63, -17.341217832130415
4950, 15, 1, 0, 16, 3.62, -16.574420653035524
4980, 17, 1, 0, 15, 2.25, -16.52981527001649
5010, 17, 1, 0, 17, 2.49, -17.315893313651607
5040, 15, 1, 0, 17, 4.42, -16.93008262627597
5070, 16, 1, 0, 15, 2.54, -16.179161465228866
5100, 18, 1, 0, 16, 1.94, -17.053723407162465
5130, 17, 1, 0, 18, 3.27, -17.652861972028102
5160, 18, 1, 0, 17, 2.20, -17.87921873149168
5190, 18, 1, 0, 18, 2.84, -18.522243704393674
5220, 17, 1, 0, 18, 3.87, -18.180833515091223
5250, 16, 1, 0, 17, 3.49, -17.313275423520096
5280, 15, 1, 0, 16, 3.74, -16.583882336667024
5310, 16, 1, 0, 15, 2.84, -16.151825734544676
5340, 14, 1, 0, 16, 3.79, -15.848702742275677
5370, 17, 1, 0, 14, 1.78, -15.927006062897334
5400, 17, 1, 0, 17, 2.52, -17.026967050074393
5430, 16, 1, 0, 17, 3.30, -17.20549373190305
5460, 16, 1, 0, 16, 3.19, -16.89635413926866
5490, 18, 1, 0, 16, 1.75, -17.419725987090988
5520, 18, 1, 0, 18, 3.16, -18.213429302179335
5550, 15, 1, 0, 18, 4.22, -17.4699091040269
5580, 16, 1, 0, 15, 3.34, -16.443439162543896
5610, 17, 1, 0, 16, 2.25, -16.598260117190186
5640, 17, 1, 0, 17, 2.76, -17.24590988452458
5670, 16, 1, 0, 17, 3.33, -17.243319804781798
5700, 16, 1, 0, 16, 3.45, -16.778441569179765
5730, 16, 1, 0, 16, 3.11, -16.403357532855214
5760, 18, 1, 0, 16, 1.67, -17.019121815556268
5790, 18, 1, 0, 18, 2.68, -18.114930824873284
5820, 17, 1, 0, 18, 3.29, -18.18585476641397
5850, 16, 1, 0, 17, 3.65, -17.649316668286055
5880, 16, 1, 0, 16, 3.33, -17.028164772122214
5910, 17, 1, 0, 16, 2.38, -17.122602373365126
5940, 19, 1, 0, 17, 2.12, -18.015145365210053
5970, 18, 1, 0, 19, 3.08, -18.59068377844391
6000, 17, 1, 0, 18, 3.44, -18.308320376867727
6030, 18, 1, 0, 17, 2.43, -18.296833995506724
6060, 20, 1, 0, 18, 2.18, -19.118399744804144
6090, 21, 1, 0, 20, 2.06, -20.177043485653954
6120, 20, 1, 0, 21, 2.96, -20.8501868858844
6150, 19, 1, 0, 20, 3.70, -20.514408918348558
6180, 18, 1, 0, 19, 3.63, -19.701659543713742
6210, 16, 1, 0, 18, 4.36, -18.55320344692096
6240, 16, 1, 0, 16, 3.40, -17.39199304493441
6270, 16, 1, 0, 16, 3.37, -16.919725294951096
6300, 16, 1, 0, 16, 3.19, -16.565788550593272
6330, 15, 1, 0, 16, 3.63, -16.105874881742526
6360, 15, 1, 0, 15, 3.26, -15.529296721192946
6390, 15, 1, 0, 15, 3.11, -15.291174200291012
6420, 15, 1, 0, 15, 2.83, -15.306464379424781
6450, 15, 1, 0, 15, 2.91, -15.472958576979195
6480, 15, 1, 0, 15, 2.93, -15.567499257503613
6510, 17, 1, 0, 15, 2.18, -16.042436090369584
6540, 16, 1, 0, 17, 2.97, -16.631346107950947
6570, 15, 1, 0, 16, 3.95, -16.157924043407
6600, 17, 1, 0, 15, 2.09, -15.970642082407865
6630, 17, 1, 0, 17, 2.26, -16.99289212359676
6660, 16, 1, 0, 17, 3.38, -17.314207228975604
6690, 15, 1, 0, 16, 3.74, -16.664420084479797
6720, 17, 1, 0, 15, 2.20, -16.561016756155382
6750, 17, 1, 0, 17, 2.98, -17.130130946625716
6780, 16, 1, 0, 17, 3.38, -16.950175792672823
6810, 15, 1, 0, 16, 3.44, -16.460460702518034
6840, 15, 1, 0, 15, 3.41, -15.941928898466683
6870, 16, 1, 0, 15, 2.65, -15.837927435190641
6900, 18, 1, 0, 16, 1.74, -16.741533526953745
6930, 18, 1, 0, 18, 2.36, -17.956452504156736
6960, 20, 1, 0, 18, 1.83, -19.011443996086907
6990, 18, 1, 0, 20, 3.67, -19.47683851094263
7020, 19, 1, 0, 18, 2.89, -19.062293951078633
7050, 18, 1, 0, 19, 3.54, -18.854159118299897
7080, 18, 1, 0, 18, 3.12, -18.412873592207646
7110, 17, 1, 0, 18, 3.33, -18.153818868795575
7140, 16, 1, 0, 17, 4.01, -17.39653769427454
7170, 16, 1, 0, 16, 2.97, -16.708110096539013
7200, 16, 1, 0, 16, 3.07, -16.69231799745874
7230, 16, 1, 0, 16, 2.93, -16.682552893119546
7260, 15, 1, 0, 16, 3.70, -16.368073676305332
7290, 15, 1, 0, 15, 3.19, -15.785164904116916
7320, 15, 1, 0, 15, 2.92, -15.69534564076139
7350, 16, 1, 0, 15, 2.67, -15.920992934237677
7380, 16, 1, 0, 16, 2.69, -16.31483297868472
7410, 16, 1, 0, 16, 2.75, -16.66054038327068
7440, 17, 1, 0, 16, 2.62, -17.02924202649086
7470, 16, 1, 0, 17, 3.45, -17.05862365239661
7500, 16, 1, 0, 16, 2.95, -16.76938267295476
7530, 17, 1, 0, 16, 2.35, -17.139171093871912
7560, 17, 1, 0, 17, 2.77, -17.711177269088115
7590, 18, 1, 0, 17, 2.63, -18.06382604933021
7620, 19, 1, 0, 18, 2.25, -18.709404754876136
7650, 17, 1, 0, 19, 4.26, -18.574873861907236
7680, 16, 1, 0, 17, 3.45, -17.463145245161417
7710, 17, 1, 0, 16, 2.75, -17.27898426461779
7740, 16, 1, 0, 17, 3.32, -17.282176528352686
7770, 18, 1, 0, 16, 2.01, -17.569844991093763
7800, 17, 1, 0, 18, 3.36, -18.06988079224056
7830, 18, 1, 0, 17, 2.48, -18.088304192618526
7860, 19, 1, 0, 18, 2.50, -18.71147485837675
7890, 16, 1, 0, 19, 4.26, -18.402248082253287
7920, 17, 1, 0, 16, 3.01, -17.5136494221418
7950, 18, 1, 0, 17, 2.49, -17.769573517259477
7980, 18, 1, 0, 18, 3.05, -18.09729447712656
8010, 17, 1, 0, 18, 3.20, -17.95701149258176
8040, 18, 1, 0, 17, 2.73, -17.955082225478648
8070, 17, 1, 0, 18, 3.53, -17.863851183737932
8100, 18, 1, 0, 17, 2.69, -17.650467786962185
8130, 15, 1, 0, 18, 4.42, -17.12715688227727
8160, 15, 1, 0, 15, 3.11, -16.079434283883963
8190, 14, 1, 0, 15, 3.71, -15.632699855895138
8220, 16, 1, 0, 14, 2.11, -15.603036364934956
8250, 16, 1, 0, 16, 2.64, -16.40982944925972
8280, 15, 1, 0, 16, 3.67, -16.3119341571262
8310, 15, 1, 0, 15, 3.39, -15.641997340948448
8340, 15, 1, 0, 15, 2.83, -15.461027776720153
8370, 16, 1, 0, 15, 2.53, -15.825568813796465
8400, 15, 1, 0, 16, 3.42, -15.933346868733825
8430, 16, 1, 0, 15, 2.57, -15.867551604689167
8460, 18, 1, 0, 16, 1.90, -16.7434011383078
8490, 16, 1, 0, 18, 3.47, -17.266092898747534
8520, 18, 1, 0, 16, 1.91, -17.50410927104223
8550, 18, 1, 0, 18, 3.00, -18.266369990499964
8580, 18, 1, 0, 18, 2.68, -18.432803424546975
8610, 18, 1, 0, 18, 3.16, -18.572352922135373
8640, 17, 1, 0, 18, 3.32, -18.297558065351016
8670, 16, 1, 0, 17, 4.05, -17.531447510273466
8700, 15, 1, 0, 16, 3.73, -16.421913292611602
8730, 18, 1, 0, 15, 1.72, -16.58382639477919
8760, 18, 1, 0, 18, 2.44, -17.771840242309505
8790, 18, 1, 0, 18, 3.09, -18.117892076746983
8820, 16, 1, 0, 18, 4.16, -17.454772498377213
8850, 15, 1, 0, 16, 3.38, -16.448117046587466
8880, 16, 1, 0, 15, 3.04, -16.157890363830244
8910, 16, 1, 0, 16, 2.98, -16.14039245861228
8940, 17, 1, 0, 16, 2.33, -16.507631851749064
8970, 17, 1, 0, 17, 2.56, -17.20645655022821
9000, 16, 1, 0, 17, 3.42, -17.297703095565513
9030, 16, 1, 0, 16, 3.56, -16.71682821161459
9060, 16, 1, 0, 16, 2.91, -16.373714818296076
9090, 18, 1, 0, 16, 1.93, -16.992687617818554
9120, 18, 1, 0, 18, 2.33, -18.08671035927335
9150, 17, 1, 0, 18, 3.60, -18.23839390663278
9180, 17, 1, 0, 17, 3.08, -17.775537625358105
9210, 18, 1, 0, 17, 2.62, -17.919274891677727
9240, 21, 1, 0, 18, 1.27, -19.08692842768301
9270, 20, 1, 0, 21, 2.65, -20.477257781262363
9300, 19, 1, 0, 20, 3.73, -20.341928945238777
9330, 19, 1, 0, 19, 3.42, -19.61299538153864
9360, 15, 1, 0, 19, 5.13, -18.21050678327632
9390, 15, 1, 0, 15, 3.95, -16.228796750386262
9420, 15, 1, 0, 15, 3.29, -15.416344204154962
9450, 13, 1, 0, 15, 3.77, -14.808883394201619
9480, 15, 1, 0, 13, 2.56, -14.495298472172916
9510, 15, 1, 0, 15, 2.45, -15.085248215490793
9540, 16, 1, 0, 15, 2.13, -15.919517466999492
9570, 16, 1, 0, 16, 3.03, -16.50883841672306
9600, 16, 1, 0, 16, 3.23, -16.365507696555436
9630, 17, 1, 0, 16, 2.47, -16.479531888150994
9660, 17, 1, 0, 17, 2.56, -17.080578955685333
9690, 16, 1, 0, 17, 3.56, -17.0990323580343
9720, 17, 1, 0, 16, 2.80, -16.816173651521975
9750, 18, 1, 0, 17, 2.24, -17.352756673254223
9780, 17, 1, 0, 18, 3.17, -17.794689531305703
9810, 18, 1, 0, 17, 2.50, -17.935971146335003
9840, 20, 1, 0, 18, 1.93, -18.84377956326288
9870, 18, 1, 0, 20, 3.48, -19.34272400618916
9900, 18, 1, 0, 18, 3.33, -18.833591286526413
9930, 17, 1, 0, 18, 3.37, -18.40686540211485
9960, 18, 1, 0, 17, 3.07, -18.1084099785925
9990, 17, 1, 0, 18, 3.48, -17.80736910541355
10020, 17, 1, 0, 17, 2.85, -17.549467090615927
10050, 16, 1, 0, 17, 3.86, -17.20267894343938
10080, 17, 1, 0, 16, 2.64, -16.790105558314618
10110, 17, 1, 0, 17, 2.86, -17.119953361254545
10140, 18, 1, 0, 17, 2.34, -17.564661498631423
10170, 17, 1, 0, 18, 3.23, -17.907836257997573
10200, 19, 1, 0, 17, 1.92, -18.31203296268512
10230, 19, 1, 0, 19, 2.60, -19.27276801576545
10260, 20, 1, 0, 19, 2.71, -19.700761111181432
10290, 18, 1, 0, 20, 4.02, -19.369253814856375
10320, 17, 1, 0, 18, 3.67, -18.30598352741223
10350, 18, 1, 0, 17, 2.85, -17.915186102125542
10380, 17, 1, 0, 18, 3.05, -17.99484927081071
10410, 17, 1, 0, 17, 3.11, -17.90442676001108
10440, 16, 1, 0, 17, 3.69, -17.470724095261758
10470, 17, 1, 0, 16, 2.43, -17.290038310911005
10500, 18, 1, 0, 17, 2.29, -18.060083057549722
10530, 17, 1, 0, 18, 3.45, -18.32107691957279
10560, 19, 1, 0, 17, 2.35, -18.34542766859605
10590, 18, 1, 0, 19, 2.90, -18.848843135135887
10620, 18, 1, 0, 18, 2.95, -18.94024489467034
10650, 19, 1, 0, 18, 2.65, -19.154127233939512
10680, 17, 1, 0, 19, 3.96, -18.89859727037252
10710, 17, 1, 0, 17, 3.18, -18.135652435648318
10740, 19, 1, 0, 17, 2.16, -18.4455217086358
10770, 17, 1, 0, 19, 4.15, -18.434407823961788
10800, 16, 1, 0, 17, 3.61, -17.31578099401606
10830, 16, 1, 0, 16, 3.28, -16.745387184372298
10860, 18, 1, 0, 16, 1.99, -17.07795243346353
10890, 15, 1, 0, 18, 4.17, -17.173331791807346
10920, 15, 1, 0, 15, 3.34, -16.176093271770583
10950, 16, 1, 0, 15, 2.81, -16.037297329613253
10980, 17, 1, 0, 16, 2.44, -16.462656094536978
11010, 17, 1, 0, 17, 2.43, -17.150626258323662
11040, 19, 1, 0, 17, 1.74, -18.20625469571171