time, sub_size, percentage, waiting, running, load, F
0, 3, 1, 0, 0, 0.00, 0
30, 6, 1, 0, 3, 0.47, -3.4122847873054263
60, 10, 1, 0, 6, 0.00, -6.741621402294697
90, 13, 1, 0, 10, 0.03, -10.380329329433192
120, 17, 1, 0, 13, 0.36, -13.823144109883168
150, 17, 1, 0, 17, 2.11, -16.123581020360263
180, 16, 1, 0, 17, 2.94, -16.771049608790793
210, 17, 1, 0, 16, 2.56, -17.04017412277872
240, 17, 1, 0, 17, 2.94, -17.37949649896527
270, 15, 1, 0, 17, 4.08, -16.8591125956
300, 15, 1, 0, 15, 3.42, -15.885313100327908
330, 16, 1, 0, 15, 2.72, -15.738464565762868
360, 15, 1, 0, 16, 3.07, -15.900706380010822
390, 15, 1, 0, 15, 3.40, -15.644146317426946
420, 15, 1, 0, 15, 3.13, -15.298890445841176
450, 14, 1, 0, 15, 3.27, -15.068409069323398
480, 14, 1, 0, 14, 3.34, -14.70210908731946
510, 16, 1, 0, 14, 1.86, -15.062269634644123
540, 17, 1, 0, 16, 1.90, -16.43122027429458
570, 18, 1, 0, 17, 2.44, -17.488518727478812
600, 18, 1, 0, 18, 2.79, -17.985045958451668
630, 18, 1, 0, 18, 2.99, -18.1350212447333
660, 17, 1, 0, 18, 3.46, -17.899459380643652
690, 15, 1, 0, 17, 4.08, -17.010418093630662
720, 16, 1, 0, 15, 2.95, -16.27810681234203
750, 17, 1, 0, 16, 2.43, -16.606262900932425
780, 17, 1, 0, 17, 2.69, -17.164945081944648
810, 17, 1, 0, 17, 3.16, -17.29924002965097
840, 18, 1, 0, 17, 2.11, -17.6497506343651
870, 18, 1, 0, 18, 2.60, -18.48121791401997
900, 16, 1, 0, 18, 4.02, -18.22845826847131
930, 16, 1, 0, 16, 3.51, -17.250239428855682
960, 16, 1, 0, 16, 3.00, -16.896890139602917
990, 15, 1, 0, 16, 3.60, -16.58341486951761
1020, 17, 1, 0, 15, 2.33, -16.51446672609456
1050, 16, 1, 0, 17, 3.43, -16.762348338183653
1080, 16, 1, 0, 16, 2.75, -16.596006509295652
1110, 16, 1, 0, 16, 2.97, -16.786378504616557
1140, 16, 1, 0, 16, 3.29, -16.65458869402481
1170, 15, 1, 0, 16, 3.66, -16.106073323550216
1200, 16, 1, 0, 15, 2.77, -15.763644043387439
1230, 15, 1, 0, 16, 3.07, -15.883277150773177
1260, 15, 1, 0, 15, 3.05, -15.806964127184987
1290, 16, 1, 0, 15, 2.69, -15.935197491343047
1320, 15, 1, 0, 16, 3.12, -16.088792902137886
1350, 14, 1, 0, 15, 3.65, -15.665946009317484
1380, 16, 1, 0, 14, 2.45, -15.496450042544462
1410, 16, 1, 0, 16, 2.53, -16.121820822443322
1440, 16, 1, 0, 16, 2.90, -16.50292845818165
1470, 16, 1, 0, 16, 2.79, -16.684667866576305
1500, 17, 1, 0, 16, 2.89, -16.888185366096764
1530, 15, 1, 0, 17, 3.86, -16.514497185742872
1560, 17, 1, 0, 15, 2.13, -16.36727307806688
1590, 15, 1, 0, 17, 3.91, -16.504260340521455
1620, 13, 1, 0, 15, 4.21, -15.23831129099984
1650, 14, 1, 0, 13, 3.19, -14.294248740570076
1680, 15, 1, 0, 14, 2.00, -14.6861462327723
1710, 18, 1, 0, 15, 1.44, -16.20030697101987
1740, 16, 1, 0, 18, 3.21, -17.182934006198046
1770, 17, 1, 0, 16, 2.62, -17.23820652587774
1800, 17, 1, 0, 17, 2.85, -17.583983913837276
1830, 16, 1, 0, 17, 3.91, -17.210932976947507
1860, 18, 1, 0, 16, 2.08, -17.049642521850636
1890, 19, 1, 0, 18, 2.15, -18.13186589056965
1920, 18, 1, 0, 19, 3.09, -18.68102936359409
1950, 17, 1, 0, 18, 3.62, -18.29904681122132
1980, 16, 1, 0, 17, 3.64, -17.532293176470002
2010, 17, 1, 0, 40, 2.67, -17.25671111504919
2040, 15, 1, 0, 49, 3.91, -17.013880992834835
2070, 12, 1, 0, 48, 5.47, -15.091859755533639
2100, 8, 1, 0, 44, 5.75, -11.934256828314515
2130, 3, 1, 0, 40, 6.50, -8.189416086615248
2160, 2, 1, 0, 35, 4.84, -4.788353139400907
2190, 1, 1, 0, 34, 4.43, -2.760601504128747
2220, 0, 1, 0, 33, 4.97, -0.7357208674545554
2250, 0, 1, 0, 32, 4.06, 1.1911206306044453
2280, 0, 1, 0, 32, 3.51, 2.193752156543322
2310, 0, 1, 0, 32, 3.78, 2.9554084025972607
2340, 0, 1, 0, 32, 2.66, 3.323035802290584
2370, 0, 1, 0, 32, 2.79, 2.973148286641839
2400, 0, 1, 0, 32, 2.66, 2.647334417056224
2430, 0, 1, 0, 32, 2.88, 2.343999987264616
2460, 0, 1, 0, 32, 1.99, 1.7323166787292592
2490, 0, 1, 0, 32, 3.03, 1.043955287344941
2520, 0, 1, 0, 32, 3.40, 1.2754154641824083
2550, 0, 1, 0, 32, 2.92, 1.515116121721169
2580, 0, 1, 0, 32, 3.69, 1.820634849828509
2610, 0, 1, 0, 32, 2.05, 1.8081073094689737
2640, 0, 1, 0, 32, 3.99, 1.6614762420430875
2670, 0, 1, 0, 32, 2.13, 1.8997265939397787
2700, 0, 1, 0, 32, 2.20, 0.8733382198949058
2730, 0, 1, 0, 32, 2.64, 0.12448298603290178
2760, 0, 1, 0, 32, 4.20, 0.49376074400690867
2790, 0, 1, 0, 32, 2.81, 1.2296914261309222
2820, 0, 1, 0, 32, 2.72, 0.9525176551546527
2850, 0, 1, 0, 32, 3.26, 0.8936488226102084
2880, 0, 1, 0, 32, 3.61, 1.3892640910261767
2910, 0, 1, 0, 32, 3.11, 1.87374031677791
2940, 0, 1, 0, 32, 2.52, 1.7020684564960251
2970, 0, 1, 0, 32, 3.10, 1.4182326463037458
3000, 0, 1, 0, 32, 2.88, 1.4265620104037713
3030, 0, 1, 0, 32, 2.78, 1.2292331140463604
3060, 1, 1, 0, 32, 1.56, 0.3298678472920943
3090, 0, 1, 0, 33, 3.51, -0.40606523679753137
3120, 0, 1, 0, 32, 3.02, -0.03622381718444072
3150, 0, 1, 0, 32, 3.17, 0.06464252418714633
3180, 0, 1, 0, 32, 2.72, 0.03221457612734581
3210, 2, 1, 0, 32, 1.69, -0.8467073428607085
3240, 2, 1, 0, 34, 2.68, -1.9276643871876256
3270, 1, 1, 0, 34, 3.41, -1.9387610798313755
3300, 0, 1, 0, 33, 3.68, -1.2973552309447758
3330, 0, 1, 0, 32, 4.22, -0.18914249704484
3360, 0, 1, 0, 32, 3.19, 0.7587887087157825
3390, 0, 1, 0, 32, 2.66, 0.7126568005502648
3420, 0, 1, 0, 32, 2.68, 0.3103424083122137
3450, 0, 1, 0, 32, 2.43, -0.2087739617612422
3480, 1, 1, 0, 32, 2.40, -0.9193188149009358
3510, 0, 1, 0, 33, 3.44, -1.10780299843219
3540, 0, 1, 0, 32, 2.94, -0.8344001838569007
3570, 1, 1, 0, 32, 2.79, -0.9852605861260081
3600, 0, 1, 0, 33, 3.30, -0.9780199488847231
3630, 1, 1, 0, 32, 2.69, -0.931710373094065
3660, 3, 1, 0, 33, 1.91, -1.7153852494949513
3690, 3, 1, 0, 35, 2.15, -2.9206007092996287
3720, 2, 1, 0, 35, 3.40, -3.3078871060505866
3750, 1, 1, 0, 34, 3.80, -2.6144098073522066
3780, 2, 1, 0, 33, 2.71, -2.2065780639062784
3810, 1, 1, 0, 34, 3.62, -2.0869339072145006
3840, 0, 1, 0, 33, 3.78, -1.2509183965283424
3870, 0, 1, 0, 32, 3.97, -0.2035174084183218
3900, 0, 1, 0, 32, 3.33, 0.6445682790870251
3930, 1, 1, 0, 32, 1.83, 0.2609630660995204
3960, 1, 1, 0, 33, 2.45, -0.8435600757074042
3990, 2, 1, 0, 33, 2.02, -1.7373677782274697
4020, 1, 1, 0, 34, 3.30, -2.266700743278107
4050, 1, 1, 0, 33, 3.04, -2.038341691332442
4080, 2, 1, 0, 33, 2.97, -2.0268275844218553
4110, 2, 1, 0, 10, 3.00, -2.0460234444097884
4140, 4, 1, 0, 2, 1.63, -2.758995869576291
4170, 7, 1, 0, 4, 0.96, -4.774988951951183
4200, 8, 1, 0, 7, 1.70, -6.877640873406748
4230, 11, 1, 0, 8, 0.78, -8.945073521669098
4260, 13, 1, 0, 11, 1.15, -11.458760109876769
4290, 15, 1, 0, 13, 1.27, -13.64826256961195
4320, 16, 1, 0, 15, 2.24, -15.252910212161773
4350, 17, 1, 0, 16, 1.75, -16.438148135681462
4380, 19, 1, 0, 17, 1.76, -17.95832450071339
4410, 20, 1, 0, 19, 1.95, -19.366388752891226
4440, 18, 1, 0, 20, 3.79, -19.68423295068422
4470, 18, 1, 0, 18, 3.38, -18.933591042158344
4500, 16, 1, 0, 18, 4.47, -17.90045229034763
4530, 15, 1, 0, 16, 3.73, -16.493579086679357
4560, 15, 1, 0, 15, 3.25, -15.856291516149538
4590, 14, 1, 0, 15, 3.59, -15.378520774927907
4620, 13, 1, 0, 14, 3.89, -14.504617965668743
4650, 13, 1, 0, 13, 2.96, -13.906503455130613
4680, 15, 1, 0, 13, 2.28, -14.314715419205447
4710, 15, 1, 0, 15, 2.56, -15.048784539466936
4740, 16, 1, 0, 15, 2.22, -15.760100115554163
4770, 17, 1, 0, 16, 2.55, -16.537912780004092
4800, 17, 1, 0, 17, 2.37, -17.178710898267525
4830, 17, 1, 0, 17, 3.18, -17.521310582309816
4860, 17, 1, 0, 17, 3.11, -17.33867658364626
4890, 16, 1, 0, 17, 3.43, -17.03996203520535
4920, 16, 1, 0, 16, 3.23, -16.62114116197285
4950, 16, 1, 0, 16, 3.22, -16.34913866474384
4980, 16, 1, 0, 16, 3.02, -16.187128587090715
5010, 15, 1, 0, 16, 3.15, -16.09606840395479
5040, 14, 1, 0, 15, 3.57, -15.692607963633476
5070, 17, 1, 0, 14, 1.85, -15.889594307033322
5100, 17, 1, 0, 17, 2.53, -16.935363226458588
5130, 18, 1, 0, 17, 2.55, -17.502411889312963
5160, 17, 1, 0, 18, 3.22, -17.703353736499857
5190, 16, 1, 0, 17, 3.41, -17.336150931424733
5220, 17, 1, 0, 16, 2.76, -17.178819728537665
5250, 16, 1, 0, 17, 3.61, -17.031308520079453
5280, 16, 1, 0, 16, 3.22, -16.493981738420217
5310, 16, 1, 0, 16, 2.84, -16.42385693632382
5340, 16, 1, 0, 16, 2.94, -16.565157145824408
5370, 16, 1, 0, 16, 2.87, -16.674257444379126
5400, 17, 1, 0, 16, 2.43, -17.063155287517702
5430, 17, 1, 0, 17, 2.90, -17.515674057630797
5460, 18, 1, 0, 17, 2.47, -17.86081611389822
5490, 18, 1, 0, 18, 2.58, -18.446205255431998
5520, 19, 1, 0, 18, 2.62, -18.936654546992585
5550, 20, 1, 0, 19, 2.26, -19.587624347213833
5580, 18, 1, 0, 20, 4.12, -19.516416469492743
5610, 18, 1, 0, 18, 3.22, -18.615977919249843
5640, 18, 1, 0, 18, 3.02, -18.449086504374826
5670, 15, 1, 0, 18, 4.70, -17.54642315726919
5700, 18, 1, 0, 15, 1.80, -16.982752373758775
5730, 18, 1, 0, 18, 2.77, -17.941564660430583
5760, 19, 1, 0, 18, 2.19, -18.526984456375413
5790, 18, 1, 0, 19, 3.22, -18.979480751430803
5820, 17, 1, 0, 18, 4.01, -18.301256606666136
5850, 16, 1, 0, 17, 3.36, -17.4058336206591
5880, 18, 1, 0, 16, 2.22, -17.560854824910603
5910, 19, 1, 0, 18, 2.46, -18.389818354133862
5940, 19, 1, 0, 19, 2.64, -18.956768765921954
5970, 18, 1, 0, 19, 3.33, -19.037302968475778
6000, 19, 1, 0, 18, 2.86, -18.879149016897927
6030, 19, 1, 0, 19, 2.46, -19.263014982666206
6060, 18, 1, 0, 19, 3.81, -19.22263270912374
6090, 17, 1, 0, 18, 3.85, -18.219013946912177
6120, 17, 1, 0, 17, 2.94, -17.66198598943869
6150, 17, 1, 0, 17, 2.94, -17.735880317719076
6180, 17, 1, 0, 17, 3.43, -17.553037589217602
6210, 15, 1, 0, 17, 4.07, -16.696676657244804
6240, 18, 1, 0, 15, 1.72, -16.61507765668413
6270, 16, 1, 0, 18, 3.45, -17.277238024829348
6300, 16, 1, 0, 16, 3.45, -16.72874702404756
6330, 17, 1, 0, 16, 2.22, -16.81970181058644
6360, 17, 1, 0, 17, 3.01, -17.361935861644312
6390, 17, 1, 0, 17, 2.90, -17.406824170758053
6420, 17, 1, 0, 17, 2.70, -17.630157569501993
6450, 16, 1, 0, 17, 3.83, -17.405766083214367
6480, 16, 1, 0, 16, 3.04, -16.80595729129119
6510, 16, 1, 0, 16, 3.10, -16.725959238253292
6540, 16, 1, 0, 16, 3.18, -16.560049983173933
6570, 16, 1, 0, 16, 2.89, -16.48783299154698
6600, 17, 1, 0, 16, 2.17, -16.991966418951275
6630, 17, 1, 0, 17, 3.23, -17.447275458508653
6660, 17, 1, 0, 17, 3.00, -17.285227450094467
6690, 18, 1, 0, 17, 2.37, -17.616422098350967
6720, 16, 1, 0, 18, 3.91, -17.584196786989278
6750, 17, 1, 0, 16, 2.84, -17.03515216617928
6780, 18, 1, 0, 17, 2.43, -17.444747177331276
6810, 15, 1, 0, 18, 4.22, -17.20294786445949
6840, 16, 1, 0, 15, 3.18, -16.25881123294977
6870, 15, 1, 0, 16, 3.32, -15.969962430832155
6900, 16, 1, 0, 15, 2.56, -15.974213789071541
6930, 15, 1, 0, 16, 3.51, -16.015073971788784
6960, 17, 1, 0, 15, 2.09, -16.13758739841522
6990, 16, 1, 0, 17, 2.95, -16.80039482609451
7020, 15, 1, 0, 16, 3.51, -16.565896109676867
7050, 16, 1, 0, 15, 2.94, -16.237005127877406
7080, 17, 1, 0, 16, 2.41, -16.5819025252379
7110, 17, 1, 0, 17, 2.48, -17.26286428274137
7140, 17, 1, 0, 17, 2.94, -17.65706112003075
7170, 17, 1, 0, 17, 3.27, -17.552904218230893
7200, 17, 1, 0, 17, 3.00, -17.363969182364762
7230, 15, 1, 0, 17, 3.80, -16.950799666973076
7260, 16, 1, 0, 15, 3.20, -16.288632952405333
7290, 14, 1, 0, 16, 3.70, -15.786660163132861
7320, 16, 1, 0, 14, 2.08, -15.780085101884122
7350, 17, 1, 0, 16, 2.44, -16.71258645721762
7380, 16, 1, 0, 17, 3.28, -16.954375462558808
7410, 16, 1, 0, 16, 3.37, -16.562548299752144
7440, 18, 1, 0, 16, 1.68, -16.988684277799965
7470, 20, 1, 0, 18, 1.56, -18.658363441297876
7500, 19, 1, 0, 20, 2.97, -19.681284855613317
7530, 18, 1, 0, 19, 3.44, -19.477356705890816
7560, 20, 1, 0, 18, 2.33, -19.519539735830662
7590, 19, 1, 0, 20, 3.09, -19.9397143961287
7620, 19, 1, 0, 19, 3.50, -19.615306674562618
7650, 19, 1, 0, 19, 2.91, -19.311716950114793
7680, 18, 1, 0, 19, 3.23, -19.256373919395262
7710, 19, 1, 0, 18, 2.94, -19.128144156341037
7740, 17, 1, 0, 19, 3.95, -18.67847392344707
7770, 15, 1, 0, 17, 4.47, -17.24935545664171
7800, 17, 1, 0, 15, 2.38, -16.541976776840556
7830, 14, 1, 0, 17, 4.51, -16.187295732713405
7860, 15, 1, 0, 14, 2.64, -15.321326735114623
7890, 14, 1, 0, 15, 3.51, -15.30786343615067
7920, 16, 1, 0, 14, 2.06, -15.444026342127485
7950, 17, 1, 0, 16, 2.47, -16.373201554407
7980, 18, 1, 0, 17, 2.27, -17.1228247575847
8010, 17, 1, 0, 18, 2.86, -17.706021763133208
8040, 16, 1, 0, 17, 3.62, -17.47788062511178
8070, 18, 1, 0, 16, 1.95, -17.591988707557963
8100, 16, 1, 0, 18, 4.08, -17.763827170327062
8130, 16, 1, 0, 16, 3.15, -16.93187281602152
8160, 16, 1, 0, 16, 3.15, -16.748676090707534
8190, 15, 1, 0, 16, 3.56, -16.350017744462317
8220, 16, 1, 0, 15, 2.48, -16.228178175933095
8250, 17, 1, 0, 16, 2.73, -16.736052696882897
8280, 17, 1, 0, 17, 2.48, -17.20079163702501
8310, 18, 1, 0, 17, 2.30, -17.931203922096003
8340, 17, 1, 0, 18, 3.32, -18.25445918399319
8370, 17, 1, 0, 17, 3.12, -17.97294593856079
8400, 14, 1, 0, 17, 4.69, -17.01124938318801
8430, 16, 1, 0, 14, 2.38, -16.15217357283428
8460, 17, 1, 0, 16, 2.22, -16.98702380929037
8490, 18, 1, 0, 17, 2.25, -17.91893657523735
8520, 19, 1, 0, 18, 2.58, -18.661788982730695
8550, 17, 1, 0, 19, 4.09, -18.387719994250407
8580, 17, 1, 0, 17, 3.14, -17.550001169872818
8610, 15, 1, 0, 17, 4.26, -16.795046900301948
8640, 16, 1, 0, 15, 2.89, -15.975531811281995
8670, 17, 1, 0, 16, 2.27, -16.434164006560323
8700, 16, 1, 0, 17, 3.13, -16.874942151070183
8730, 15, 1, 0, 16, 3.51, -16.520757126220865
8760, 17, 1, 0, 15, 2.20, -16.581934719935973
8790, 17, 1, 0, 17, 2.80, -17.241508214522643
8820, 17, 1, 0, 17, 2.81, -17.476853273075182
8850, 17, 1, 0, 17, 3.12, -17.548195514578484
8880, 17, 1, 0, 17, 2.94, -17.496990598263707
8910, 17, 1, 0, 17, 2.75, -17.6691660258963
8940, 17, 1, 0, 17, 3.22, -17.73308099591671
8970, 17, 1, 0, 17, 2.81, -17.677194505094462
9000, 17, 1, 0, 17, 3.07, -17.770351419659242
9030, 16, 1, 0, 17, 3.78, -17.314613862806087
9060, 16, 1, 0, 16, 3.11, -16.71146308128243
9090, 17, 1, 0, 16, 2.45, -16.923417779139626
9120, 15, 1, 0, 17, 4.10, -16.738081067598383
9150, 15, 1, 0, 15, 3.10, -15.917488091500509
9180, 15, 1, 0, 15, 3.00, -15.84425449977997
9210, 15, 1, 0, 15, 3.02, -15.833909782151412
9240, 16, 1, 0, 15, 2.67, -15.99217643627663
9270, 15, 1, 0, 16, 3.41, -16.005263544288947
9300, 16, 1, 0, 15, 2.58, -15.93483890195705
9330, 17, 1, 0, 16, 2.52, -16.474362467711444
9360, 16, 1, 0, 17, 3.03, -16.793168421132073
9390, 15, 1, 0, 16, 3.62, -16.44799372804344
9420, 16, 1, 0, 15, 2.74, -16.149737266392886
9450, 16, 1, 0, 16, 3.05, -16.30586114406404
9480, 15, 1, 0, 16, 3.52, -16.00173143653541
9510, 14, 1, 0, 15, 3.60, -15.326267308191875
9540, 15, 1, 0, 14, 2.81, -15.002014011303945
9570, 14, 1, 0, 15, 3.32, -14.968318713709948
9600, 15, 1, 0, 14, 2.39, -15.068099221270847
9630, 16, 1, 0, 15, 2.30, -15.86293222915201
9660, 17, 1, 0, 16, 2.17, -16.78463902421694
9690, 17, 1, 0, 17, 2.85, -17.44236710331619
9720, 19, 1, 0, 17, 1.97, -18.085344595063525
9750, 18, 1, 0, 19, 3.19, -18.701735301798088
9780, 17, 1, 0, 18, 3.40, -18.360650383634052
9810, 17, 1, 0, 17, 3.30, -17.928326382796392
9840, 17, 1, 0, 17, 2.88, -17.77920340540492
9870, 16, 1, 0, 17, 3.64, -17.52839799981477
9900, 16, 1, 0, 16, 3.26, -16.94947273802599
9930, 14, 1, 0, 16, 4.31, -16.08761934549283
9960, 16, 1, 0, 14, 2.46, -15.455959593893324
9990, 16, 1, 0, 16, 2.66, -16.012080941891814
10020, 15, 1, 0, 16, 3.24, -16.12407602388345
10050, 18, 1, 0, 15, 1.72, -16.625335874444314
10080, 18, 1, 0, 18, 2.69, -17.68403588541285
10110, 18, 1, 0, 18, 2.82, -17.992853027396336
10140, 18, 1, 0, 18, 2.53, -18.36165396637313
10170, 18, 1, 0, 18, 3.07, -18.65571351377551
10200, 19, 1, 0, 18, 2.36, -18.941009459290825
10230, 18, 1, 0, 19, 3.66, -19.046877089224854
10260, 17, 1, 0, 18, 3.68, -18.236743150836656
10290, 18, 1, 0, 17, 2.82, -17.860745190972324
10320, 19, 1, 0, 18, 2.34, -18.335464704919193
10350, 18, 1, 0, 19, 2.98, -18.80913736286911
10380, 18, 1, 0, 18, 3.36, -18.6366808196786
10410, 19, 1, 0, 18, 2.17, -18.819827585306516
10440, 18, 1, 0, 19, 3.50, -19.13961735110695
10470, 19, 1, 0, 18, 2.55, -19.025660444810825
10500, 19, 1, 0, 19, 2.85, -19.414768858773325
10530, 17, 1, 0, 19, 4.05, -18.970998360781877
10560, 17, 1, 0, 17, 3.14, -18.165492723950102
10590, 16, 1, 0, 17, 3.88, -17.607335136273683
10620, 15, 1, 0, 16, 3.58, -16.69194521163904
10650, 15, 1, 0, 15, 3.21, -16.181259394116353
10680, 14, 1, 0, 15, 3.92, -15.561174651694442
10710, 15, 1, 0, 14, 2.49, -15.189352463045841
10740, 17, 1, 0, 15, 2.15, -15.988839230745368
10770, 19, 1, 0, 17, 1.46, -17.382749337246125
10800, 18, 1, 0, 19, 3.03, -18.44288126303466
10830, 18, 1, 0, 18, 2.87, -18.492807659963972
10860, 18, 1, 0, 18, 3.20, -18.483831321329177
10890, 17, 1, 0, 18, 3.72, -17.972720844740646
10920, 17, 1, 0, 17, 2.94, -17.503293019045987
10950, 16, 1, 0, 17, 3.55, -17.259219657004525
10980, 17, 1, 0, 16, 2.80, -16.982488097254688
11010, 16, 1, 0, 17, 3.15, -17.044769552183052
11040, 16, 1, 0, 16, 3.00, -16.939479391251826
11070, 17, 1, 0, 16, 2.83, -17.025730162782768
11100, 17, 1, 0, 17, 2.95, -17.170799765538657
11130, 18, 1, 0, 17, 2.54, -17.448247936360595